{
  "expo": {
    "name": "Thepronails.com merchant kit",
    "description": "No description",
    "slug": "apps-developer-new",
    "privacy": "unlisted",
    "sdkVersion": "25.0.0",
    "version": "1.0.0",
    "orientation": "portrait",
    "primaryColor": "#cccccc",
    "icon": "./assets/icons/app-icon.png",
    "notification": {
      "icon": "./assets/icons/notification-icon.png",
      "color": "#000000"
    },
    "loading": {
      "icon": "./assets/icons/loading.png",
      "hideExponentText": true
    },
    "packagerOpts": {
      "assetExts": [
        "ttf"
      ]
    },
    "ios": {
      "supportsTablet": true,
      "bundleIdentifier": "com.thepronails.merchant",
      "publishBundlePath": "ios/thepronails-com-merchant-kit/Supporting/shell-app.bundle",
      "publishManifestPath": "ios/thepronails-com-merchant-kit/Supporting/shell-app-manifest.json"
    },
    "isDetached": true,
    "detach": {
      "scheme": "exp55a9468ce4e749f9a1fbaa443399587c",
      "iosExpoViewUrl": "https://s3.amazonaws.com/exp-exponent-view-code/ios-v2.3.3-sdk25.0.0-e7a4361a-631d-4caf-9692-1880d71c394a.tar.gz",
      "androidExpoViewUrl": "https://s3.amazonaws.com/exp-exponent-view-code/android-v2.3.0-sdk25.0.0-0c32461b-a7c6-4ddc-b85b-32a80c4f18d9.tar.gz"
    },
    "android": {
      "package": "com.thepronails.merchant"
    }
  }
}